What the Package Does (One Line, Title Case) • whitewater
…
system.time({
pnw_dv <- suppressMessages(ww_dvUSGS(huc17_sites$site_no,
                    parameter_cd = '00060',
                    wy_month = 10,
                    parallel = TRUE))
})
#>    user  system elapsed 
#>   29.37    2.05  214.42

nrow(pnw_dv)
#> [1] 11681517

pnw_dv
#> # A tibble: 11,681,517 x 24
#>    agency_cd site_no  Date        Flow Flow_cd drainage_area Station   lat  long
#>    <chr>     <chr>    <date>     <dbl> <chr>           <dbl> <chr>   <dbl> <dbl>
#>  1 USGS      10396000 1911-04-01   160 A                 200 DONNER~  42.8 -119.
#>  2 USGS      10396000 1911-04-02   166 A                 200 DONNER~  42.8 -119.
#>  3 USGS      10396000 1911-04-03   173 A                 200 DONNER~  42.8 -119.
#>  4 USGS      10396000 1911-04-04   180 A                 200 DONNER~  42.8 -119.
#>  5 USGS      10396000 1911-04-05   187 A                 200 DONNER~  42.8 -119.
#>  6 USGS      10396000 1911-04-06   232 A                 200 DONNER~  42.8 -119.
#>  7 USGS      10396000 1911-04-07   207 A                 200 DONNER~  42.8 -119.
#>  8 USGS      10396000 1911-04-08   182 A                 200 DONNER~  42.8 -119.
#>  9 USGS      10396000 1911-04-09   157 A                 200 DONNER~  42.8 -119.
#> 10 USGS      10396000 1911-04-10   132 A                 200 DONNER~  42.8 -119.
#> # ... with 11,681,507 more rows, and 15 more variables: altitude <dbl>,
#> #   STILLING.WELL_Flow <dbl>, STILLING.WELL_Flow_cd <chr>,
#> #   .Estimated.By.Regression._Flow <dbl>,
#> #   .Estimated.By.Regression._Flow_cd <chr>, ..2.._Flow <dbl>,
#> #   ..2.._Flow_cd <chr>, .Discharge.1921.to.1952._Flow <dbl>,
#> #   .Discharge.1921.to.1952._Flow_cd <chr>, year <dbl>, month <dbl>, day <int>,
#> #   month_day <chr>, wy <int>, month_abb <fct>
Now we can use other ww_ functions to filter the data by water year, month, water year and month, as well as stat reporting (percentiles comparing current readings).

Water Year

Same as above, we can just call parallel = TRUE to run in parallel since we’ll be getting peak flows from dataRetrieval::readNWISpeak().

system.time({
pnw_wy <- suppressWarnings(suppressMessages(ww_wyUSGS(pnw_dv,
                                     parallel = TRUE)))
})
#>    user  system elapsed 
#>   13.16    0.57   66.72

pnw_wy
#> # A tibble: 32,650 x 20
#>    Station          site_no    wy peak_va peak_dt    Flow_max Flow_min Flow_mean
#>    <chr>            <chr>   <int>   <dbl> <date>        <dbl>    <dbl>     <dbl>
#>  1 ABIQUA CREEK AT~ 142007~  2014      NA NA              123  3.4 e-1      25.6
#>  2 ABIQUA CREEK AT~ 142007~  2015    3330 2014-12-21     2400  8.5 e-1     199. 
#>  3 ABIQUA CREEK AT~ 142007~  2016    5980 2015-12-07     3230  7   e-1     318. 
#>  4 ABIQUA CREEK AT~ 142007~  2017    3740 2017-03-09     2390  1.05e+0     405. 
#>  5 ABIQUA CREEK AT~ 142007~  2018    4290 2017-10-22     2320  4.1 e-1     257. 
#>  6 ABIQUA CREEK AT~ 142007~  2019    3700 2019-04-07     3000  6.2 e-1     201. 
#>  7 ABIQUA CREEK AT~ 142007~  2020    2600 2020-01-28     2190  1.7 e+0     197. 
#>  8 ABIQUA CREEK AT~ 142007~  2021    5360 2020-12-20     4360  7.6 e-1     254. 
#>  9 ABIQUA CREEK AT~ 142007~  2022      NA NA             2530  3.4 e+1     462. 
#> 10 AHTANUM CREEK A~ 125025~  1904      NA NA              530  1   e-6     165. 
#> # ... with 32,640 more rows, and 12 more variables: Flow_median <dbl>,
#> #   Flow_stdev <dbl>, Flow_coef_var <dbl>, Flow_max_dnorm <dbl>,
#> #   Flow_min_dnorm <dbl>, Flow_mean_dnorm <dbl>, Flow_med_dnorm <dbl>,
#> #   Flow_max_sdnorm <dbl>, Flow_min_sdnorm <dbl>, Flow_mean_sdnorm <dbl>,
#> #   Flow_med_sdnorm <dbl>, Flow_sd_norm <dbl>
…
