…
system.time({
pnw_dv <- ww_dvUSGS(huc17_sites$site_no,
                    parameter_cd = '00060',
                    wy_month = 10,
                    parallel = TRUE,
                    verbose = FALSE)
})
#>    user  system elapsed 
#>   39.62    3.00  475.62

nrow(pnw_dv)
#> [1] 11714373

pnw_dv
#> # A tibble: 11,714,373 x 25
#>    agency_cd site_no  Date        Flow Flow_cd drainage_area Station   lat  long
#>    <chr>     <chr>    <date>     <dbl> <chr>           <dbl> <chr>   <dbl> <dbl>
#>  1 USGS      10396000 1911-04-01   160 A                 200 DONNER~  42.8 -119.
#>  2 USGS      10396000 1911-04-02   166 A                 200 DONNER~  42.8 -119.
#>  3 USGS      10396000 1911-04-03   173 A                 200 DONNER~  42.8 -119.
#>  4 USGS      10396000 1911-04-04   180 A                 200 DONNER~  42.8 -119.
#>  5 USGS      10396000 1911-04-05   187 A                 200 DONNER~  42.8 -119.
#>  6 USGS      10396000 1911-04-06   232 A                 200 DONNER~  42.8 -119.
#>  7 USGS      10396000 1911-04-07   207 A                 200 DONNER~  42.8 -119.
#>  8 USGS      10396000 1911-04-08   182 A                 200 DONNER~  42.8 -119.
#>  9 USGS      10396000 1911-04-09   157 A                 200 DONNER~  42.8 -119.
#> 10 USGS      10396000 1911-04-10   132 A                 200 DONNER~  42.8 -119.
#> # ... with 11,714,363 more rows, and 16 more variables: altitude <dbl>,
#> #   STILLING.WELL_Flow <dbl>, STILLING.WELL_Flow_cd <chr>,
#> #   .Estimated.By.Regression._Flow <dbl>,
#> #   .Estimated.By.Regression._Flow_cd <chr>, ..2.._Flow <dbl>,
#> #   ..2.._Flow_cd <chr>, .Discharge.1921.to.1952._Flow <dbl>,
#> #   .Discharge.1921.to.1952._Flow_cd <chr>, year <dbl>, month <dbl>, day <int>,
#> #   month_day <chr>, wy <int>, month_abb <fct>, obs_per_wy <int>
```
…
pnw_wy
#> # A tibble: 32,670 x 27
#>    Station   site_no    wy peak_va peak_dt    drainage_area   lat  long altitude
#>    <chr>     <chr>   <int>   <dbl> <date>             <dbl> <dbl> <dbl>    <dbl>
#>  1 ABIQUA C~ 142007~  2014      NA NA                  72.9  45.0 -123.      193
#>  2 ABIQUA C~ 142007~  2015    3330 2014-12-21          72.9  45.0 -123.      193
#>  3 ABIQUA C~ 142007~  2016    5980 2015-12-07          72.9  45.0 -123.      193
#>  4 ABIQUA C~ 142007~  2017    3740 2017-03-09          72.9  45.0 -123.      193
#>  5 ABIQUA C~ 142007~  2018    4290 2017-10-22          72.9  45.0 -123.      193
#>  6 ABIQUA C~ 142007~  2019    3700 2019-04-07          72.9  45.0 -123.      193
#>  7 ABIQUA C~ 142007~  2020    2600 2020-01-28          72.9  45.0 -123.      193
#>  8 ABIQUA C~ 142007~  2021    5360 2020-12-20          72.9  45.0 -123.      193
#>  9 ABIQUA C~ 142007~  2022      NA NA                  72.9  45.0 -123.      193
#> 10 AHTANUM ~ 125025~  1904      NA NA                 173    46.5 -120.      940
#> # ... with 32,660 more rows, and 18 more variables: obs_per_wy <int>,
#> #   wy_count <int>, Flow_sum <dbl>, Flow_max <dbl>, Flow_min <dbl>,
#> #   Flow_mean <dbl>, Flow_median <dbl>, Flow_stdev <dbl>, Flow_coef_var <dbl>,
#> #   Flow_max_dnorm <dbl>, Flow_min_dnorm <dbl>, Flow_mean_dnorm <dbl>,
#> #   Flow_med_dnorm <dbl>, Flow_max_sdnorm <dbl>, Flow_min_sdnorm <dbl>,
#> #   Flow_mean_sdnorm <dbl>, Flow_med_sdnorm <dbl>, Flow_sd_norm <dbl>
```
…
