Parallel Processing Options for USGS Data Retrieval • whitewater
…
system.time({
pnw_dv <- ww_dvUSGS(huc17_sites$site_no,
                    parameter_cd = '00060',
                    wy_month = 10,
                    parallel = TRUE,
                    verbose = FALSE)
})
#>    user  system elapsed 
#>   39.96    2.47  559.56

nrow(pnw_dv)
#> [1] 11752061

pnw_dv
#> # A tibble: 11,752,061 x 28
#>    Station site_no drainage_area   lat  long altitude agency_cd Date        Flow
#>    <chr>   <chr>           <dbl> <dbl> <dbl>    <dbl> <chr>     <date>     <dbl>
#>  1 DONNER~ 103960~          124.  42.8 -119.     4254 USGS      1911-04-01   160
#>  2 DONNER~ 103960~          124.  42.8 -119.     4254 USGS      1911-04-02   166
#>  3 DONNER~ 103960~          124.  42.8 -119.     4254 USGS      1911-04-03   173
#>  4 DONNER~ 103960~          124.  42.8 -119.     4254 USGS      1911-04-04   180
#>  5 DONNER~ 103960~          124.  42.8 -119.     4254 USGS      1911-04-05   187
#>  6 DONNER~ 103960~          124.  42.8 -119.     4254 USGS      1911-04-06   232
#>  7 DONNER~ 103960~          124.  42.8 -119.     4254 USGS      1911-04-07   207
#>  8 DONNER~ 103960~          124.  42.8 -119.     4254 USGS      1911-04-08   182
#>  9 DONNER~ 103960~          124.  42.8 -119.     4254 USGS      1911-04-09   157
#> 10 DONNER~ 103960~          124.  42.8 -119.     4254 USGS      1911-04-10   132
#> # ... with 11,752,051 more rows, and 19 more variables: Flow_cd <chr>,
#> #   STILLING.WELL_Flow <dbl>, STILLING.WELL_Flow_cd <chr>,
#> #   .Estimated.By.Regression._Flow <dbl>,
#> #   .Estimated.By.Regression._Flow_cd <chr>, ..2.._Flow <dbl>,
#> #   ..2.._Flow_cd <chr>, .Discharge.1921.to.1952._Flow <dbl>,
#> #   .Discharge.1921.to.1952._Flow_cd <chr>, year <dbl>, month <dbl>, day <int>,
#> #   doy <dbl>, wy_doy <dbl>, month_day <chr>, wy <int>, month_abb <fct>, ...
…
Water Year

Same as above, we can just call parallel = TRUE to run in parallel since we’ll be getting peak flows from dataRetrieval::readNWISpeak().

system.time({
pnw_wy <- suppressMessages(ww_wyUSGS(pnw_dv,
                                     parallel = TRUE,
                                     verbose = FALSE))
})
#>    user  system elapsed 
#>   16.86    0.72  418.25

pnw_wy
#> # A tibble: 32,663 x 27
#>    Station   site_no    wy peak_va peak_dt    drainage_area   lat  long altitude
#>    <chr>     <chr>   <int>   <dbl> <date>             <dbl> <dbl> <dbl>    <dbl>
#>  1 ABIQUA C~ 142007~  2014      NA NA                  45.3  45.0 -123.      193
#>  2 ABIQUA C~ 142007~  2015    3330 2014-12-21          45.3  45.0 -123.      193
#>  3 ABIQUA C~ 142007~  2016    5980 2015-12-07          45.3  45.0 -123.      193
#>  4 ABIQUA C~ 142007~  2017    3740 2017-03-09          45.3  45.0 -123.      193
#>  5 ABIQUA C~ 142007~  2018    4290 2017-10-22          45.3  45.0 -123.      193
#>  6 ABIQUA C~ 142007~  2019    3700 2019-04-07          45.3  45.0 -123.      193
#>  7 ABIQUA C~ 142007~  2020    2600 2020-01-28          45.3  45.0 -123.      193
#>  8 ABIQUA C~ 142007~  2021    5360 2020-12-20          45.3  45.0 -123.      193
#>  9 ABIQUA C~ 142007~  2022      NA NA                  45.3  45.0 -123.      193
#> 10 AHTANUM ~ 125025~  1904      NA NA                 107.   46.5 -120.      940
#> # ... with 32,653 more rows, and 18 more variables: obs_per_wy <int>,
#> #   wy_count <int>, Flow_sum <dbl>, Flow_max <dbl>, Flow_min <dbl>,
#> #   Flow_mean <dbl>, Flow_median <dbl>, Flow_stdev <dbl>, Flow_coef_var <dbl>,
#> #   Flow_max_dnorm <dbl>, Flow_min_dnorm <dbl>, Flow_mean_dnorm <dbl>,
#> #   Flow_med_dnorm <dbl>, Flow_max_sdnorm <dbl>, Flow_min_sdnorm <dbl>,
#> #   Flow_mean_sdnorm <dbl>, Flow_med_sdnorm <dbl>, Flow_sd_norm <dbl>
…
