stats • whitewater
…
ww_statsUSGS()

The ww_statsUSGS() is essentially a wrapper around dataRetrieval::readNWISstat() but in addition will take the parameter values (‘Flow’, ‘Wtemp’, etc) calculated from the ww_floorIVUSGS() function and add to the data as well. Thus, the instantaneous values will look different than the daily mean values, as it should. Just like dataRetrieval, there are three different flavors of temporal windows that we can choose from: daily, monthly and yearly.

daily

The temporalFilter argument is used to generate the window of percentiles. Like in the example below we just want to get the last 30 days of daily stats so we’ll put temporalFilter = 'daily' and days = 30. The days arguments is only used for daily but will go back the amount of days you input.

yaak_daily_report_30 <- yaak_dv %>% ww_statsUSGS(temporalFilter = 'daily',
                                  days = 30)
#> v Yaak River near Troy MT 'NWIS Stat' for Temporal Filter (daily) was successfully downloaded.
yaak_daily_report_30
#> # A tibble: 31 x 33
#>    Station     site_no drainage_area   lat  long altitude agency_cd parameter_cd
#>    <chr>       <chr>           <dbl> <dbl> <dbl>    <dbl> <chr>     <chr>       
#>  1 Yaak River~ 123045~           792  48.6 -116.     1839 USGS      00060       
#>  2 Yaak River~ 123045~           792  48.6 -116.     1839 USGS      00060       
#>  3 Yaak River~ 123045~           792  48.6 -116.     1839 USGS      00060       
#>  4 Yaak River~ 123045~           792  48.6 -116.     1839 USGS      00060       
#>  5 Yaak River~ 123045~           792  48.6 -116.     1839 USGS      00060       
#>  6 Yaak River~ 123045~           792  48.6 -116.     1839 USGS      00060       
#>  7 Yaak River~ 123045~           792  48.6 -116.     1839 USGS      00060       
#>  8 Yaak River~ 123045~           792  48.6 -116.     1839 USGS      00060       
#>  9 Yaak River~ 123045~           792  48.6 -116.     1839 USGS      00060       
#> 10 Yaak River~ 123045~           792  48.6 -116.     1839 USGS      00060       
#> # ... with 21 more rows, and 25 more variables: ts_id <chr>, loc_web_ds <lgl>,
#> #   month_nu <dbl>, day_nu <dbl>, begin_yr <dbl>, end_yr <dbl>, count_nu <dbl>,
#> #   max_va_yr <dbl>, max_va <dbl>, min_va_yr <dbl>, min_va <dbl>,
#> #   mean_va <dbl>, p05_va <dbl>, p10_va <dbl>, p20_va <dbl>, p25_va <dbl>,
#> #   p50_va <dbl>, p75_va <dbl>, p80_va <dbl>, p90_va <dbl>, p95_va <dbl>,
#> #   month_day <chr>, Date <date>, Flow <dbl>,
#> #   Flow_StatisticsStatusDescription <fct>
…
